Flow report for gaussian_ip
Fri Apr 12 07:32:09 2019
Quartus Prime Version 17.1.0 Build 590 10/25/2017 SJ Standard Edition


---------------------
; Table of Contents ;
---------------------
  1. Legal Notice
  2. Flow Summary
  3. Flow Settings
  4. Flow Non-Default Global Settings
  5. Flow Elapsed Time
  6. Flow OS Summary
  7. Flow Log
  8. Flow Messages
  9. Flow Suppressed Messages



----------------
; Legal Notice ;
----------------
Copyright (C) 2017  Intel Corporation. All rights reserved.
Your use of Intel Corporation's design tools, logic functions 
and other software and tools, and its AMPP partner logic 
functions, and any output files from any of the foregoing 
(including device programming or simulation files), and any 
associated documentation or information are expressly subject 
to the terms and conditions of the Intel Program License 
Subscription Agreement, the Intel Quartus Prime License Agreement,
the Intel FPGA IP License Agreement, or other applicable license
agreement, including, without limitation, that your use is for
the sole purpose of programming logic devices manufactured by
Intel and sold by Intel or its authorized distributors.  Please
refer to the applicable agreement for further details.



+--------------------------------------------------------------------------------------+
; Flow Summary                                                                         ;
+------------------------------------+-------------------------------------------------+
; Flow Status                        ; Successful - Fri Apr 12 07:32:09 2019           ;
; Quartus Prime Version              ; 17.1.0 Build 590 10/25/2017 SJ Standard Edition ;
; Revision Name                      ; gaussian_ip                                     ;
; Top-level Entity Name              ; gaussian_ip                                     ;
; Family                             ; Cyclone IV GX                                   ;
; Total logic elements               ; 3,251 / 21,280 ( 15 % )                         ;
;     Total combinational functions  ; 2,313 / 21,280 ( 11 % )                         ;
;     Dedicated logic registers      ; 2,951 / 21,280 ( 14 % )                         ;
; Total registers                    ; 2951                                            ;
; Total pins                         ; 54 / 167 ( 32 % )                               ;
; Total virtual pins                 ; 0                                               ;
; Total memory bits                  ; 228,696 / 774,144 ( 30 % )                      ;
; Embedded Multiplier 9-bit elements ; 0 / 80 ( 0 % )                                  ;
; Total GXB Receiver Channel PCS     ; 0 / 4 ( 0 % )                                   ;
; Total GXB Receiver Channel PMA     ; 0 / 4 ( 0 % )                                   ;
; Total GXB Transmitter Channel PCS  ; 0 / 4 ( 0 % )                                   ;
; Total GXB Transmitter Channel PMA  ; 0 / 4 ( 0 % )                                   ;
; Total PLLs                         ; 0 / 4 ( 0 % )                                   ;
; Device                             ; EP4CGX22CF19C6                                  ;
; Timing Models                      ; Final                                           ;
+------------------------------------+-------------------------------------------------+


+-----------------------------------------+
; Flow Settings                           ;
+-------------------+---------------------+
; Option            ; Setting             ;
+-------------------+---------------------+
; Start date & time ; 04/12/2019 07:28:17 ;
; Main task         ; Compilation         ;
; Revision Name     ; gaussian_ip         ;
+-------------------+---------------------+


+--------------------------------------------------------------------------------------------------+
; Flow Non-Default Global Settings                                                                 ;
+-----------------------+-------------------------------+---------------+-------------+------------+
; Assignment Name       ; Value                         ; Default Value ; Entity Name ; Section Id ;
+-----------------------+-------------------------------+---------------+-------------+------------+
; COMPILER_SIGNATURE_ID ; 738759708294.155502889507480  ; --            ; --          ; --         ;
; ENABLE_SIGNALTAP      ; Off                           ; --            ; --          ; --         ;
; SEARCH_PATH           ; ../.                          ; --            ; --          ; --         ;
; SEARCH_PATH           ; ../gaussian_ip_dspbuilder/hdl ; --            ; --          ; --         ;
+-----------------------+-------------------------------+---------------+-------------+------------+


+-------------------------------------------------------------------------------------------------------------------------------+
; Flow Elapsed Time                                                                                                             ;
+---------------------------+--------------+-------------------------+---------------------+------------------------------------+
; Module Name               ; Elapsed Time ; Average Processors Used ; Peak Virtual Memory ; Total CPU Time (on all processors) ;
+---------------------------+--------------+-------------------------+---------------------+------------------------------------+
; Analysis & Synthesis      ; 00:02:15     ; 1.0                     ; 920 MB              ; 00:00:57                           ;
; Fitter                    ; 00:00:54     ; 1.0                     ; 1319 MB             ; 00:00:39                           ;
; TimeQuest Timing Analyzer ; 00:00:19     ; 1.2                     ; 671 MB              ; 00:00:12                           ;
; Assembler                 ; 00:00:06     ; 1.0                     ; 647 MB              ; 00:00:04                           ;
; Total                     ; 00:03:34     ; --                      ; --                  ; 00:01:52                           ;
+---------------------------+--------------+-------------------------+---------------------+------------------------------------+


+------------------------------------------------------------------------------------------+
; Flow OS Summary                                                                          ;
+---------------------------+------------------+-------------+------------+----------------+
; Module Name               ; Machine Hostname ; OS Name     ; OS Version ; Processor type ;
+---------------------------+------------------+-------------+------------+----------------+
; Analysis & Synthesis      ; Tung             ; Windows 8.1 ; 6.3        ; x86_64         ;
; Fitter                    ; Tung             ; Windows 8.1 ; 6.3        ; x86_64         ;
; TimeQuest Timing Analyzer ; Tung             ; Windows 8.1 ; 6.3        ; x86_64         ;
; Assembler                 ; Tung             ; Windows 8.1 ; 6.3        ; x86_64         ;
+---------------------------+------------------+-------------+------------+----------------+


------------
; Flow Log ;
------------
quartus_map gaussian_ip
quartus_fit gaussian_ip
quartus_sta gaussian_ip
quartus_asm gaussian_ip



